…
**Differential targeting**

When analysing directed networks, for example gene regulatory networks, it is often interesting to investigate whether certain genes receive more or less regulatory inputs from the available regulators. The `compare_targeting` function returns a long format dataframe containing the targeting values (weighted in-degree) for all nodes in all contrasts, and calculates their absolute differences and log2 ratios.

```compare_targeting(mList)```
```
# A tibble: 48 × 6
   name  compared_networks targetingNet1    targetingNet2    deltaTargeting log2TargetingFC
   <chr> <chr>             <chr>            <chr>                     <dbl>           <dbl>
 1 A     1_vs_2            27.6346392300918 27.6874690512176         0.0528        -0.00276
 2 B     1_vs_2            29.8726112282955 26.9418521610785         2.93           0.149  
 3 C     1_vs_2            28.5670161764824 32.060872844062          3.49          -0.166  
 4 D     1_vs_2            24.2359415913853 30.232862221301          6.00          -0.319  
 5 E     1_vs_2            33.4329853975894 31.2644101654748         2.17           0.0968 
 6 F     1_vs_2            23.9585795470352 28.2588353526615         4.30          -0.238  
 7 A     1_vs_3            27.6346392300918 32.0685564274156         4.43          -0.215  
 8 B     1_vs_3            29.8726112282955 30.3004109595961         0.428         -0.0205 
 9 C     1_vs_3            28.5670161764824 29.9136675030772         1.35          -0.0665 
10 D     1_vs_3            24.2359415913853 28.6473055140799         4.41          -0.241  
# ℹ 38 more rows
# ℹ Use `print(n = ...)` to see more rows
```
…
